^c:\Visual Studio 2013\Projects\INF3_Projekt\INF3_Projekt\INF3_Projekt.vcxproj
c:\Visual Studio 2013\Projects\INF3_Projekt\INF3_Projekt\Debug\INF3_Projekt.HauptForm.resources
^c:\Visual Studio 2013\Projects\INF3_Projekt\INF3_Projekt\INF3_Projekt.vcxproj
c:\Visual Studio 2013\Projects\INF3_Projekt\INF3_Projekt\Debug\INF3_Projekt.HauptForm.resources
^C:\Visual Studio 2013\Projects\INF3_Projekt\INF3_Projekt\INF3_Projekt.vcxproj
C:\Visual Studio 2013\Projects\INF3_Projekt\INF3_Projekt\Debug\INF3_Projekt.AnzeigenForm.resources
C:\Visual Studio 2013\Projects\INF3_Projekt\INF3_Projekt\Debug\INF3_Projekt.HauptForm.resources
^C:\Visual Studio 2013\Projects\INF3_Projekt\INF3_Projekt\INF3_Projekt.vcxproj
C:\Visual Studio 2013\Projects\INF3_Projekt\INF3_Projekt\Debug\INF3_Projekt.AnzeigenForm.resources
C:\Visual Studio 2013\Projects\INF3_Projekt\INF3_Projekt\Debug\INF3_Projekt.HauptForm.resources
^C:\Visual Studio 2013\Projects\INF3_Projekt\INF3_Projekt\INF3_Projekt.vcxproj
C:\Visual Studio 2013\Projects\INF3_Projekt\INF3_Projekt\Debug\INF3_Projekt.AnzeigenForm.resources
C:\Visual Studio 2013\Projects\INF3_Projekt\INF3_Projekt\Debug\INF3_Projekt.HauptForm.resources
^C:\Visual Studio 2013\Projects\INF3_Projekt\INF3_Projekt\INF3_Projekt.vcxproj
C:\Visual Studio 2013\Projects\INF3_Projekt\INF3_Projekt\Debug\INF3_Projekt.AnzeigenForm.resources
C:\Visual Studio 2013\Projects\INF3_Projekt\INF3_Projekt\Debug\INF3_Projekt.HauptForm.resources
^C:\Visual Studio 2013\Projects\INF3_Projekt\INF3_Projekt\INF3_Projekt.vcxproj
C:\Visual Studio 2013\Projects\INF3_Projekt\INF3_Projekt\Debug\INF3_Projekt.AnzeigenForm.resources
C:\Visual Studio 2013\Projects\INF3_Projekt\INF3_Projekt\Debug\INF3_Projekt.HauptForm.resources
^C:\Visual Studio 2013\Projects\INF3_Projekt\INF3_Projekt\INF3_Projekt.vcxproj
C:\Visual Studio 2013\Projects\INF3_Projekt\INF3_Projekt\Debug\INF3_Projekt.AnzeigenForm.resources
C:\Visual Studio 2013\Projects\INF3_Projekt\INF3_Projekt\Debug\INF3_Projekt.HauptForm.resources
^C:\Visual Studio 2013\Projects\INF3_Projekt\INF3_Projekt\INF3_Projekt.vcxproj
C:\Visual Studio 2013\Projects\INF3_Projekt\INF3_Projekt\Debug\INF3_Projekt.AnzeigenForm.resources
C:\Visual Studio 2013\Projects\INF3_Projekt\INF3_Projekt\Debug\INF3_Projekt.EingebenForm.resources
C:\Visual Studio 2013\Projects\INF3_Projekt\INF3_Projekt\Debug\INF3_Projekt.HauptForm.resources
^C:\Visual Studio 2013\Projects\INF3_Projekt\INF3_Projekt\INF3_Projekt.vcxproj
C:\Visual Studio 2013\Projects\INF3_Projekt\INF3_Projekt\Debug\INF3_Projekt.AnzeigenForm.resources
C:\Visual Studio 2013\Projects\INF3_Projekt\INF3_Projekt\Debug\INF3_Projekt.EingebenForm.resources
C:\Visual Studio 2013\Projects\INF3_Projekt\INF3_Projekt\Debug\INF3_Projekt.HauptForm.resources
C:\Visual Studio 2013\Projects\INF3_Projekt\INF3_Projekt\Debug\INF3_Projekt.SuchenForm.resources
^C:\Visual Studio 2013\Projects\INF3_Projekt\INF3_Projekt\INF3_Projekt.vcxproj
C:\Visual Studio 2013\Projects\INF3_Projekt\INF3_Projekt\Debug\INF3_Projekt.AnzeigenForm.resources
C:\Visual Studio 2013\Projects\INF3_Projekt\INF3_Projekt\Debug\INF3_Projekt.EingebenForm.resources
C:\Visual Studio 2013\Projects\INF3_Projekt\INF3_Projekt\Debug\INF3_Projekt.HauptForm.resources
C:\Visual Studio 2013\Projects\INF3_Projekt\INF3_Projekt\Debug\INF3_Projekt.SuchenForm.resources
^C:\Visual Studio 2013\Projects\INF3_Projekt\INF3_Projekt\INF3_Projekt.vcxproj
C:\Visual Studio 2013\Projects\INF3_Projekt\INF3_Projekt\Debug\INF3_Projekt.AendernForm.resources
C:\Visual Studio 2013\Projects\INF3_Projekt\INF3_Projekt\Debug\INF3_Projekt.AnzeigenForm.resources
C:\Visual Studio 2013\Projects\INF3_Projekt\INF3_Projekt\Debug\INF3_Projekt.EingebenForm.resources
C:\Visual Studio 2013\Projects\INF3_Projekt\INF3_Projekt\Debug\INF3_Projekt.HauptForm.resources
C:\Visual Studio 2013\Projects\INF3_Projekt\INF3_Projekt\Debug\INF3_Projekt.SuchenForm.resources
^C:\Visual Studio 2013\Projects\INF3_Projekt\INF3_Projekt\INF3_Projekt.vcxproj
C:\Visual Studio 2013\Projects\INF3_Projekt\INF3_Projekt\Debug\INF3_Projekt.AendernForm.resources
C:\Visual Studio 2013\Projects\INF3_Projekt\INF3_Projekt\Debug\INF3_Projekt.AnzeigenForm.resources
C:\Visual Studio 2013\Projects\INF3_Projekt\INF3_Projekt\Debug\INF3_Projekt.EingebenForm.resources
C:\Visual Studio 2013\Projects\INF3_Projekt\INF3_Projekt\Debug\INF3_Projekt.HauptForm.resources
C:\Visual Studio 2013\Projects\INF3_Projekt\INF3_Projekt\Debug\INF3_Projekt.SuchenForm.resources
^C:\Visual Studio 2013\Projects\INF3_Projekt\INF3_Projekt\INF3_Projekt.vcxproj
C:\Visual Studio 2013\Projects\INF3_Projekt\INF3_Projekt\Debug\INF3_Projekt.AendernForm.resources
C:\Visual Studio 2013\Projects\INF3_Projekt\INF3_Projekt\Debug\INF3_Projekt.AnzeigenForm.resources
C:\Visual Studio 2013\Projects\INF3_Projekt\INF3_Projekt\Debug\INF3_Projekt.EingebenForm.resources
C:\Visual Studio 2013\Projects\INF3_Projekt\INF3_Projekt\Debug\INF3_Projekt.HauptForm.resources
C:\Visual Studio 2013\Projects\INF3_Projekt\INF3_Projekt\Debug\INF3_Projekt.SuchenForm.resources
^C:\Visual Studio 2013\Projects\INF3_Projekt\INF3_Projekt\INF3_Projekt.vcxproj
C:\Visual Studio 2013\Projects\INF3_Projekt\INF3_Projekt\Debug\INF3_Projekt.AendernForm.resources
C:\Visual Studio 2013\Projects\INF3_Projekt\INF3_Projekt\Debug\INF3_Projekt.AnzeigenForm.resources
C:\Visual Studio 2013\Projects\INF3_Projekt\INF3_Projekt\Debug\INF3_Projekt.EingebenForm.resources
C:\Visual Studio 2013\Projects\INF3_Projekt\INF3_Projekt\Debug\INF3_Projekt.HauptForm.resources
C:\Visual Studio 2013\Projects\INF3_Projekt\INF3_Projekt\Debug\INF3_Projekt.SuchenForm.resources
^C:\Visual Studio 2013\Projects\INF3_Projekt\INF3_Projekt\INF3_Projekt.vcxproj
C:\Visual Studio 2013\Projects\INF3_Projekt\INF3_Projekt\Debug\INF3_Projekt.AendernForm.resources
C:\Visual Studio 2013\Projects\INF3_Projekt\INF3_Projekt\Debug\INF3_Projekt.AnzeigenForm.resources
C:\Visual Studio 2013\Projects\INF3_Projekt\INF3_Projekt\Debug\INF3_Projekt.EingebenForm.resources
C:\Visual Studio 2013\Projects\INF3_Projekt\INF3_Projekt\Debug\INF3_Projekt.HauptForm.resources
C:\Visual Studio 2013\Projects\INF3_Projekt\INF3_Projekt\Debug\INF3_Projekt.SuchenForm.resources
^C:\Visual Studio 2013\Projects\INF3_Projekt\INF3_Projekt\INF3_Projekt.vcxproj
C:\Visual Studio 2013\Projects\INF3_Projekt\INF3_Projekt\Debug\INF3_Projekt.AendernForm.resources
C:\Visual Studio 2013\Projects\INF3_Projekt\INF3_Projekt\Debug\INF3_Projekt.AnzeigenForm.resources
C:\Visual Studio 2013\Projects\INF3_Projekt\INF3_Projekt\Debug\INF3_Projekt.EingebenForm.resources
C:\Visual Studio 2013\Projects\INF3_Projekt\INF3_Projekt\Debug\INF3_Projekt.HauptForm.resources
C:\Visual Studio 2013\Projects\INF3_Projekt\INF3_Projekt\Debug\INF3_Projekt.SuchenForm.resources
^C:\Visual Studio 2013\Projects\INF3_Projekt\INF3_Projekt\INF3_Projekt.vcxproj
C:\Visual Studio 2013\Projects\INF3_Projekt\INF3_Projekt\Debug\INF3_Projekt.AendernForm.resources
C:\Visual Studio 2013\Projects\INF3_Projekt\INF3_Projekt\Debug\INF3_Projekt.AnzeigenForm.resources
C:\Visual Studio 2013\Projects\INF3_Projekt\INF3_Projekt\Debug\INF3_Projekt.EingebenForm.resources
C:\Visual Studio 2013\Projects\INF3_Projekt\INF3_Projekt\Debug\INF3_Projekt.HauptForm.resources
C:\Visual Studio 2013\Projects\INF3_Projekt\INF3_Projekt\Debug\INF3_Projekt.LoeschenForm.resources
C:\Visual Studio 2013\Projects\INF3_Projekt\INF3_Projekt\Debug\INF3_Projekt.SuchenForm.resources
^C:\Visual Studio 2013\Projects\INF3_Projekt\INF3_Projekt\INF3_Projekt.vcxproj
C:\Visual Studio 2013\Projects\INF3_Projekt\INF3_Projekt\Debug\INF3_Projekt.AendernForm.resources
C:\Visual Studio 2013\Projects\INF3_Projekt\INF3_Projekt\Debug\INF3_Projekt.AnzeigenForm.resources
C:\Visual Studio 2013\Projects\INF3_Projekt\INF3_Projekt\Debug\INF3_Projekt.EingebenForm.resources
C:\Visual Studio 2013\Projects\INF3_Projekt\INF3_Projekt\Debug\INF3_Projekt.HauptForm.resources
C:\Visual Studio 2013\Projects\INF3_Projekt\INF3_Projekt\Debug\INF3_Projekt.LoeschenForm.resources
C:\Visual Studio 2013\Projects\INF3_Projekt\INF3_Projekt\Debug\INF3_Projekt.SuchenForm.resources
^C:\Visual Studio 2013\Projects\INF3_Projekt\INF3_Projekt\INF3_Projekt.vcxproj
C:\Visual Studio 2013\Projects\INF3_Projekt\INF3_Projekt\Debug\INF3_Projekt.AendernForm.resources
C:\Visual Studio 2013\Projects\INF3_Projekt\INF3_Projekt\Debug\INF3_Projekt.AnzeigenForm.resources
C:\Visual Studio 2013\Projects\INF3_Projekt\INF3_Projekt\Debug\INF3_Projekt.EingebenForm.resources
C:\Visual Studio 2013\Projects\INF3_Projekt\INF3_Projekt\Debug\INF3_Projekt.HauptForm.resources
C:\Visual Studio 2013\Projects\INF3_Projekt\INF3_Projekt\Debug\INF3_Projekt.LoeschenForm.resources
C:\Visual Studio 2013\Projects\INF3_Projekt\INF3_Projekt\Debug\INF3_Projekt.SuchenForm.resources
^C:\Visual Studio 2013\Projects\INF3_Projekt\INF3_Projekt\INF3_Projekt.vcxproj
C:\Visual Studio 2013\Projects\INF3_Projekt\INF3_Projekt\Debug\INF3_Projekt.AendernForm.resources
C:\Visual Studio 2013\Projects\INF3_Projekt\INF3_Projekt\Debug\INF3_Projekt.AnzeigenForm.resources
C:\Visual Studio 2013\Projects\INF3_Projekt\INF3_Projekt\Debug\INF3_Projekt.EingebenForm.resources
C:\Visual Studio 2013\Projects\INF3_Projekt\INF3_Projekt\Debug\INF3_Projekt.HauptForm.resources
C:\Visual Studio 2013\Projects\INF3_Projekt\INF3_Projekt\Debug\INF3_Projekt.LoeschenForm.resources
C:\Visual Studio 2013\Projects\INF3_Projekt\INF3_Projekt\Debug\INF3_Projekt.SuchenForm.resources
^C:\Visual Studio 2013\Projects\INF3_Projekt\INF3_Projekt\INF3_Projekt.vcxproj
C:\Visual Studio 2013\Projects\INF3_Projekt\INF3_Projekt\Debug\INF3_Projekt.AendernForm.resources
C:\Visual Studio 2013\Projects\INF3_Projekt\INF3_Projekt\Debug\INF3_Projekt.AnzeigenForm.resources
C:\Visual Studio 2013\Projects\INF3_Projekt\INF3_Projekt\Debug\INF3_Projekt.EingebenForm.resources
C:\Visual Studio 2013\Projects\INF3_Projekt\INF3_Projekt\Debug\INF3_Projekt.HauptForm.resources
C:\Visual Studio 2013\Projects\INF3_Projekt\INF3_Projekt\Debug\INF3_Projekt.LoeschenForm.resources
C:\Visual Studio 2013\Projects\INF3_Projekt\INF3_Projekt\Debug\INF3_Projekt.SuchenForm.resources
^C:\Visual Studio 2013\Projects\INF3_Projekt\INF3_Projekt\INF3_Projekt.vcxproj
C:\Visual Studio 2013\Projects\INF3_Projekt\INF3_Projekt\Debug\INF3_Projekt.AendernForm.resources
C:\Visual Studio 2013\Projects\INF3_Projekt\INF3_Projekt\Debug\INF3_Projekt.AnzeigenForm.resources
C:\Visual Studio 2013\Projects\INF3_Projekt\INF3_Projekt\Debug\INF3_Projekt.EingebenForm.resources
C:\Visual Studio 2013\Projects\INF3_Projekt\INF3_Projekt\Debug\INF3_Projekt.HauptForm.resources
C:\Visual Studio 2013\Projects\INF3_Projekt\INF3_Projekt\Debug\INF3_Projekt.LoeschenForm.resources
C:\Visual Studio 2013\Projects\INF3_Projekt\INF3_Projekt\Debug\INF3_Projekt.SuchenForm.resources
^C:\Visual Studio 2013\Projects\INF3_Projekt\INF3_Projekt\INF3_Projekt.vcxproj
C:\Visual Studio 2013\Projects\INF3_Projekt\INF3_Projekt\Debug\INF3_Projekt.AendernForm.resources
C:\Visual Studio 2013\Projects\INF3_Projekt\INF3_Projekt\Debug\INF3_Projekt.AnzeigenForm.resources
C:\Visual Studio 2013\Projects\INF3_Projekt\INF3_Projekt\Debug\INF3_Projekt.EingebenForm.resources
C:\Visual Studio 2013\Projects\INF3_Projekt\INF3_Projekt\Debug\INF3_Projekt.HauptForm.resources
C:\Visual Studio 2013\Projects\INF3_Projekt\INF3_Projekt\Debug\INF3_Projekt.LoeschenForm.resources
C:\Visual Studio 2013\Projects\INF3_Projekt\INF3_Projekt\Debug\INF3_Projekt.SuchenForm.resources
